…
```r
library(gginnards)
```

`geom_debug()`将接收到的`gg` object作为输出返回到R console 上，生成的data.fram记录了geometries 和statistics的信息。
```r
ggplot(mtcars, aes(cyl, mpg, color = mpg)) +
  geom_point() +
  geom_debug()

```

```
# A tibble: 32 x 5
   colour      x     y PANEL group
   <chr>   <dbl> <dbl> <fct> <int>
 1 #30648F     6  21   1        -1
 2 #30648F     6  21   1        -1
 3 #356E9D     4  22.8 1        -1
 4 #316692     6  21.4 1        -1
 5 #29577E     8  18.7 1        -1
 6 #275379     6  18.1 1        -1
 7 #1D3F5E     8  14.3 1        -1
 8 #3977A9     4  24.4 1        -1
 9 #356E9D     4  22.8 1        -1
10 #2A5982     6  19.2 1        -1
# … with 22 more rows
```
…
